%YAML 1.1
%TAG !u! tag:unity3d.com,2011:
--- !u!21 &2100000
Material:
  serializedVersion: 6
  m_ObjectHideFlags: 0
  m_PrefabParentObject: {fileID: 0}
  m_PrefabInternal: {fileID: 0}
  m_Name: lambert1
  m_Shader: {fileID: 4800000, guid: 76374158b4c4e5744b394e9290aae693, type: 3}
  m_ShaderKeywords: 
  m_LightmapFlags: 5
  m_CustomRenderQueue: -1
  stringTagMap: {}
  m_SavedProperties:
    serializedVersion: 2
    m_TexEnvs:
    - first:
        name: _BumpMap
      second:
        m_Texture: {fileID: 0}
        m_Scale: {x: 1, y: 1}
        m_Offset: {x: 0, y: 0}
    - first:
        name: _Cube
      second:
        m_Texture: {fileID: 0}
        m_Scale: {x: 1, y: 1}
        m_Offset: {x: 0, y: 0}
    - first:
        name: _DetailAlbedoMap
      second:
        m_Texture: {fileID: 0}
        m_Scale: {x: 1, y: 1}
        m_Offset: {x: 0, y: 0}
    - first:
        name: _DetailMask
      second:
        m_Texture: {fileID: 0}
        m_Scale: {x: 1, y: 1}
        m_Offset: {x: 0, y: 0}
    - first:
        name: _DetailNormalMap
      second:
        m_Texture: {fileID: 0}
        m_Scale: {x: 1, y: 1}
        m_Offset: {x: 0, y: 0}
    - first:
        name: _EmissionMap
      second:
        m_Texture: {fileID: 0}
        m_Scale: {x: 1, y: 1}
        m_Offset: {x: 0, y: 0}
    - first:
        name: _MainTex
      second:
        m_Texture: {fileID: 0}
        m_Scale: {x: 1, y: 1}
        m_Offset: {x: 0, y: 0}
    - first:
        name: _MetallicGlossMap
      second:
        m_Texture: {fileID: 0}
        m_Scale: {x: 1, y: 1}
        m_Offset: {x: 0, y: 0}
    - first:
        name: _OcclusionMap
      second:
        m_Texture: {fileID: 0}
        m_Scale: {x: 1, y: 1}
        m_Offset: {x: 0, y: 0}
    - first:
        name: _ParallaxMap
      second:
        m_Texture: {fileID: 0}
        m_Scale: {x: 1, y: 1}
        m_Offset: {x: 0, y: 0}
    - first:
        name: _ToonShade
      second:
        m_Texture: {fileID: 0}
        m_Scale: {x: 1, y: 1}
        m_Offset: {x: 0, y: 0}
    - first:
        name: _V_WIRE_NormalMap
      second:
        m_Texture: {fileID: 0}
        m_Scale: {x: 1, y: 1}
        m_Offset: {x: 0, y: 0}
    - first:
        name: _V_WIRE_Specular_Lookup
      second:
        m_Texture: {fileID: 0}
        m_Scale: {x: 1, y: 1}
        m_Offset: {x: 0, y: 0}
    - first:
        name: _V_WIRE_TransparentTex
      second:
        m_Texture: {fileID: 0}
        m_Scale: {x: 1, y: 1}
        m_Offset: {x: 0, y: 0}
    m_Floats:
    - first:
        name: _Brightness
      second: 1
    - first:
        name: _BumpScale
      second: 1
    - first:
        name: _Cutoff
      second: 0.5
    - first:
        name: _DetailNormalMapScale
      second: 1
    - first:
        name: _DetailTex
      second: 0
    - first:
        name: _DstBlend
      second: 0
    - first:
        name: _GlossMapScale
      second: 1
    - first:
        name: _Glossiness
      second: 0.5
    - first:
        name: _GlossyReflections
      second: 1
    - first:
        name: _Metallic
      second: 0
    - first:
        name: _Mode
      second: 0
    - first:
        name: _OcclusionStrength
      second: 1
    - first:
        name: _Outline
      second: 0.01
    - first:
        name: _Parallax
      second: 0.02
    - first:
        name: _SmoothnessTextureChannel
      second: 0
    - first:
        name: _SpecularHighlights
      second: 1
    - first:
        name: _SrcBlend
      second: 1
    - first:
        name: _TintColor
      second: 0
    - first:
        name: _UVSec
      second: 0
    - first:
        name: _V_WIRE_BumpEnumID
      second: 0
    - first:
        name: _V_WIRE_DynamicMaskEffectsBaseTexEnumID
      second: 0
    - first:
        name: _V_WIRE_DynamicMaskEffectsBaseTexInvert
      second: 0
    - first:
        name: _V_WIRE_DynamicMaskEnumID
      second: 0
    - first:
        name: _V_WIRE_DynamicMaskInvert
      second: 0
    - first:
        name: _V_WIRE_FresnelBias
      second: 0
    - first:
        name: _V_WIRE_FresnelEnumID
      second: 0
    - first:
        name: _V_WIRE_FresnelInvert
      second: 0
    - first:
        name: _V_WIRE_FresnelPow
      second: 1
    - first:
        name: _V_WIRE_IncludeLightEnumID
      second: 0
    - first:
        name: _V_WIRE_ReflectionEnumID
      second: 0
    - first:
        name: _V_WIRE_Reflection_Fresnel_Bias
      second: -1
    - first:
        name: _V_WIRE_Reflection_Roughness
      second: 0.3
    - first:
        name: _V_WIRE_Reflection_Strength
      second: 0.5
    - first:
        name: _V_WIRE_RenderingOptions_ODLEnumID
      second: 0
    - first:
        name: _V_WIRE_Size
      second: 0.05
    - first:
        name: _V_WIRE_SpecularEnumID
      second: 0
    - first:
        name: _V_WIRE_Tag
      second: 0
    - first:
        name: _V_WIRE_Title_M_Options
      second: 0
    - first:
        name: _V_WIRE_Title_V_Options
      second: 0
    - first:
        name: _V_WIRE_Title_W_Options
      second: 0
    - first:
        name: _V_WIRE_TransparencyEnumID
      second: 0
    - first:
        name: _V_WIRE_TransparentTex_Alpha_Offset
      second: 0
    - first:
        name: _V_WIRE_TransparentTex_Invert
      second: 0
    - first:
        name: _V_WIRE_TransparentTex_UVSet
      second: 0
    - first:
        name: _V_WIRE_VertexColorEnumID
      second: 0
    - first:
        name: _V_WIRE_VertexLightAndAmbientID
      second: 0
    - first:
        name: _VertexColor
      second: 0
    - first:
        name: _ZWrite
      second: 1
    m_Colors:
    - first:
        name: _Color
      second: {r: 1, g: 0, b: 0, a: 1}
    - first:
        name: _EmissionColor
      second: {r: 0, g: 0, b: 0, a: 1}
    - first:
        name: _OutlineColor
      second: {r: 0.5, g: 0.5, b: 0.5, a: 1}
    - first:
        name: _ReflectColor
      second: {r: 0.5, g: 0.5, b: 0.5, a: 1}
    - first:
        name: _V_WIRE_Color
      second: {r: 0, g: 0, b: 0, a: 1}
    - first:
        name: _V_WIRE_MainTex_Scroll
      second: {r: 0, g: 0, b: 0, a: 0}
    - first:
        name: _V_WIRE_TransparentTex_Scroll
      second: {r: 0, g: 0, b: 0, a: 0}
